{
  "index": "/index.html",
  "assetGroups": [
    {
      "name": "app",
      "installMode": "prefetch",
      "resources": {
        "files": [
          "/favicon.ico",
          "/index.html",
          "/manifest.webmanifest",
          "/*.css",
          "/*.js"
        ]
      }
    }, {
      "name": "assets",
      "installMode": "lazy",
      "updateMode": "prefetch",
      "resources": {
        "files": [
          "/assets/**",
          "/*.(eot|svg|cur|jpg|png|webp|gif|otf|ttf|woff|woff2|ani)"
        ]
      }
    }
  ],
  "dataGroups": [
    {
      "name":"API's",
      "urls":[
        "https://pacific-journey-95032.herokuapp.com/api/v1/scim/v2/Me",
        "https://pacific-journey-95032.herokuapp.com/api/v1/invoices/active/**",
        "https://pacific-journey-95032.herokuapp.com/api/v1/invoices/**",
        "https://pacific-journey-95032.herokuapp.com/api/v1/coabyagreements/**",
        "https://pacific-journey-95032.herokuapp.com/api/v1/coabyagreements?*",
        "https://pacific-journey-95032.herokuapp.com/api/v1/coas/**",
        "https://pacific-journey-95032.herokuapp.com/api/v1/coas?*",
        "https://pacific-journey-95032.herokuapp.com/api/v1/orders/**",
        "https://pacific-journey-95032.herokuapp.com/api/v1/orders?*",
        "https://pacific-journey-95032.herokuapp.com/api/v1/statuses/counts",
        "https://pacific-journey-95032.herokuapp.com/api/v1/customers"
      ],
      "cacheConfig": {
        "strategy":"performance",
        "maxSize": 100,
        "maxAge": "3d"
      }
    }
  ]
}
